…
ℹ Use `spec()` to retrieve the full column specification for this data.
ℹ Specify the column types or set `show_col_types = FALSE` to quiet this message.
> 
> 
> data_train
# A tibble: 32,769 × 10
   ACTION RESOURCE MGR_ID ROLE_ROLLUP_1 ROLE_ROLLUP_2 ROLE_DEPTNAME ROLE_TITLE
   <fct>     <dbl>  <dbl>         <dbl>         <dbl>         <dbl>      <dbl>
 1 1         39353  85475        117961        118300        123472     117905
 2 1         17183   1540        117961        118343        123125     118536
 3 1         36724  14457        118219        118220        117884     117879
 4 1         36135   5396        117961        118343        119993     118321
 5 1         42680   5905        117929        117930        119569     119323
 6 0         45333  14561        117951        117952        118008     118568
 7 1         25993  17227        117961        118343        123476     118980
 8 1         19666   4209        117961        117969        118910     126820
 9 1         31246    783        117961        118413        120584     128230
10 1         78766  56683        118079        118080        117878     117879
# ℹ 32,759 more rows
# ℹ 3 more variables: ROLE_FAMILY_DESC <dbl>, ROLE_FAMILY <dbl>,
#   ROLE_CODE <dbl>
…
